{
  "openapi": "3.0.1",
  "info": {
    "title": "Doc Communecter Ajax",
    "description": "Documentation des requétes ajax dans Communecter",
    "termsOfService": "",
    "contact": {
      "email": "laurentd@netc.fr"
    },
    "version": "0.1"
  },
  "servers": [
    {
      "url": "communecter.org"
    }
  ],
  "tags": [
    {
      "name": "chat",
      "description": "module"
    },
    {
      "name": "classifieds",
      "description": "module"
    },
    {
      "name": "co2",
      "description": "module"
    },
    {
      "name": "costum",
      "description": "module"
    },
    {
      "name": "cotools",
      "description": "module"
    },
    {
      "name": "dda",
      "description": "module"
    },
    {
      "name": "eco",
      "description": "module"
    },
    {
      "name": "graph",
      "description": "module"
    },
    {
      "name": "interop",
      "description": "module"
    },
    {
      "name": "learn",
      "description": "module"
    },
    {
      "name": "map",
      "description": "module"
    },
    {
      "name": "news",
      "description": "module"
    },
    {
      "name": "onepage",
      "description": "module"
    },
    {
      "name": "places",
      "description": "module"
    },
    {
      "name": "ressources",
      "description": "module"
    },
    {
      "name": "survey",
      "description": "module"
    }
  ],
  "paths": {
    "/co2/rocketchat": {
      "get": {
        "tags": [
          "chat"
        ],
        "summary": "preload the iframe of rocketchat",
        "description": "in /views/default/rocketchat.php L99",
        "operationId": "loadIframeChat",
        "responses": {
          "200": {
            "description": "renderPartial de /co2/views/rocketchat/iframe.php",
            "content": {}
          },
          "400": {
            "description": "redirect homeUrl",
            "content": {}
          }
        }
      }
    },
    "/co2/rocketchat/list": {
      "get": {
        "tags": [
          "chat"
        ],
        "summary": "get all users List of channels",
        "description": "in /views/default/rocketchat.php L101",
        "operationId": "loadListChat",
        "responses": {
          "200": {
            "description": "list of channel and group rocketchat for current user"
          }
        }
      }
    },
    "/co2/rocketchat/chat/name/{rcObj.data.slug}/type/{rcObj.data.type}/id/{rcObj.data.id}{extra}": {
      "get": {
        "tags": [
          "chat"
        ],
        "summary": "create a new chat",
        "description": "in /views/default/rocketchat.php L167",
        "parameters": [
          {
            "in": "path",
            "name": "rcObj.data.slug",
            "description": "slug communecter",
            "required": true,
            "schema": {
              "type": "string"
            }
          },
          {
            "in": "path",
            "name": "rcObj.data.type",
            "description": "type element communecter",
            "required": true,
            "schema": {
              "type": "string"
            }
          },
          {
            "in": "path",
            "name": "rcObj.data.id",
            "description": "id element communecter",
            "required": true,
            "schema": {
              "type": "string"
            }
          },
          {
            "in": "path",
            "name": "extra",
            "description": "type of room",
            "required": true,
            "schema": {
              "type": "string",
              "enum": [
                "/roomType/channel",
                "/roomType/group"
              ]
            }
          }
        ],
        "responses": {
          "200": {
            "description": "a demander"
          }
        }
      }
    },
    "/{moduleId}/comment/index/type/classified/id/{element[_id][$id]}": {
      "get": {
        "tags": [
          "classifieds",
          "eco"
        ],
        "summary": "open a modal",
        "description": "in classifieds/views/co/preview.php l234 and classifieds/views/co/standalone.php l220 and classifieds/views/terla/standalone.php l125 and eco/views/terla/standalone.php",
        "parameters": [
          {
            "$ref": "#/components/parameters/idel"
          },
          {
            "$ref": "#/components/parameters/moduleId"
          }
        ],
        "responses": {
          "200": {
            "description": "return the commentElement of classified modal"
          }
        }
      }
    },
    "/classifieds/default/doc": {
      "get": {
        "tags": [
          "classifieds"
        ],
        "summary": "load md README convert to html in #doc",
        "description": "/views/default/index.php l31",
        "responses": {
          "200": {
            "description": ""
          }
        }
      }
    },
    "/co2/default/directoryjs": {
      "get": {
        "tags": [
          "classifieds",
          "co2",
          "places"
        ],
        "summary": "load html in #page and callback has event and function",
        "description": "in classifieds/views/co/search.php l152 and co2/views/app/prestation.php and places/views/co/search.php L223",
        "parameters": [
          {
            "in": "query",
            "name": "typeUrl",
            "description": "var typeUrl = \"?nopreload=true\";if(type!=\"\") typeUrl = \"?type=\"+type+\"&nopreload=true\";",
            "required": true,
            "schema": {
              "type": "string"
            }
          },
          {
            "in": "query",
            "name": "appUrl",
            "description": "var appUrl = (typeof search.app != \"undefined\") ? \"&app=\"+search.app : \"\";",
            "required": true,
            "schema": {
              "type": "string"
            }
          }
        ],
        "responses": {
          "200": {
            "description": ""
          }
        }
      }
    },
    "/co2/pod/activitylist/type/{type}/id/{id}": {
      "get": {
        "tags": [
          "co2"
        ],
        "summary": "view to show each activity realized on an entity by someone",
        "description": "in /assets/js/activityHistory.js l8",
        "parameters": [
          {
            "$ref": "#/components/parameters/type"
          },
          {
            "$ref": "#/components/parameters/id"
          }
        ],
        "responses": {
          "200": {
            "description": ""
          }
        }
      }
    },
    "/co2/{urlInCo.js}": {
      "get": {
        "tags": [
          "co2"
        ],
        "summary": "generique",
        "description": "desciption: va roder dans le fichier",
        "parameters": [
          {
            "in": "path",
            "name": "urlInCo.js",
            "description": "comme description",
            "required": true,
            "schema": {
              "type": "string"
            }
          }
        ],
        "responses": {
          "200": {
            "description": ""
          }
        }
      }
    },
    "/co2/document/list/id/{id}/type/{type}/tpl/json": {
      "get": {
        "tags": [
          "co2"
        ],
        "summary": "",
        "description": "in /assets/js/co.js L3182",
        "parameters": [
          {
            "$ref": "#/components/parameters/type"
          },
          {
            "$ref": "#/components/parameters/id"
          }
        ],
        "responses": {
          "200": {
            "description": ""
          }
        }
      }
    },
    "/co2/comment/index/type/resolutions/id/{idParentResolution}": {
      "get": {
        "tags": [
          "co2"
        ],
        "summary": "",
        "description": "/assets/js/cooperation/uiCoop.js l730",
        "parameters": [
          {
            "in": "path",
            "name": "idParentResolution",
            "description": "",
            "required": true,
            "schema": {
              "type": "string"
            }
          }
        ],
        "responses": {
          "200": {
            "description": ""
          }
        }
      }
    },
    "/co2/comment/index/type/{type}/id/{id}": {
      "get": {
        "tags": [
          "co2",
          "costum"
        ],
        "summary": "",
        "description": "in co2/assets/js/default/admin.js l1335 and costum/views/custom/notragora/element.php L697 and /views/custom/notragora/production.php L642",
        "parameters": [
          {
            "$ref": "#/components/parameters/type"
          },
          {
            "$ref": "#/components/parameters/id"
          }
        ],
        "responses": {
          "200": {
            "description": ""
          }
        }
      }
    },
    "/co2/event/calendarview/id/{id}/pod/1": {
      "get": {
        "tags": [
          "co2"
        ],
        "summary": "load calendar",
        "description": "in /assets/js/default/editInPlace.js l28",
        "parameters": [
          {
            "in": "query",
            "name": "date",
            "description": "",
            "required": true,
            "schema": {
              "type": "integer",
              "enum": [
                1
              ]
            }
          },
          {
            "$ref": "#/components/parameters/id"
          }
        ],
        "responses": {
          "200": {
            "description": ""
          }
        }
      }
    },
    "/co2/element/getdatadetail/type/{type}/id/{id}/dataName/{pageProfil.params.dir+sub}": {
      "get": {
        "tags": [
          "co2"
        ],
        "summary": "",
        "description": "in /assets/js/default/profilSocial.js",
        "parameters": [
          {
            "$ref": "#/components/parameters/type"
          },
          {
            "$ref": "#/components/parameters/id"
          },
          {
            "in": "path",
            "name": "pageProfil.params.dir+sub",
            "description": "pageProfil.params.dir + var sub=(!notEmpty(pageProfil.params.sub)) ? \"\" : \"/sub/\"+pageProfil.params.sub;",
            "required": true,
            "schema": {
              "type": "string"
            }
          },
          {
            "in": "query",
            "name": "tpl",
            "description": "",
            "required": true,
            "schema": {
              "type": "string",
              "enum": [
                "json"
              ]
            }
          }
        ],
        "responses": {
          "200": {
            "description": ""
          }
        }
      }
    },
    "/co2/element/geturls/type/{type}/id/{id}": {
      "get": {
        "tags": [
          "co2"
        ],
        "summary": "",
        "description": "in /assets/js/default/profilSocial.js L287",
        "parameters": [
          {
            "$ref": "#/components/parameters/type"
          },
          {
            "$ref": "#/components/parameters/id"
          }
        ],
        "responses": {
          "200": {
            "description": ""
          }
        }
      }
    },
    "/co2/element/getnetworks/type/{type}/id/{id}": {
      "get": {
        "tags": [
          "co2"
        ],
        "summary": "",
        "description": "in /assets/js/default/profilSocial.js L296",
        "parameters": [
          {
            "$ref": "#/components/parameters/type"
          },
          {
            "$ref": "#/components/parameters/id"
          }
        ],
        "responses": {
          "200": {
            "description": ""
          }
        }
      }
    },
    "/co2/element/getcuriculum/type/{type}/id/{id}": {
      "get": {
        "tags": [
          "co2"
        ],
        "summary": "",
        "description": "in /assets/js/default/profilSocial.js L306",
        "parameters": [
          {
            "$ref": "#/components/parameters/type"
          },
          {
            "$ref": "#/components/parameters/id"
          }
        ],
        "responses": {
          "200": {
            "description": ""
          }
        }
      }
    },
    "/co2/element/settings/confidentiality/type/{type}/id/{id}": {
      "get": {
        "tags": [
          "co2"
        ],
        "summary": "",
        "description": "in /assets/js/default/profilSocial.js L324",
        "parameters": [
          {
            "$ref": "#/components/parameters/type"
          },
          {
            "$ref": "#/components/parameters/id"
          }
        ],
        "responses": {
          "200": {
            "description": ""
          }
        }
      }
    },
    "/co2/element/getcontacts/type/{type}/id/{id}": {
      "get": {
        "tags": [
          "co2"
        ],
        "summary": "",
        "description": "in /assets/js/default/profilSocial.js L332",
        "parameters": [
          {
            "$ref": "#/components/parameters/type"
          },
          {
            "$ref": "#/components/parameters/id"
          }
        ],
        "responses": {
          "200": {
            "description": ""
          }
        }
      }
    },
    "/co2/costum/co/dashboard/sk/{slug}+{dTpl+dType}": {
      "get": {
        "tags": [
          "co2"
        ],
        "summary": "",
        "description": "in /assets/js/default/profilSocial.js L383",
        "parameters": [
          {
            "$ref": "#/components/parameters/slug"
          },
          {
            "in": "path",
            "name": "dTpl+dType",
            "description": "if( notNull(contextData.costum.dashboard ) ){if( notNull( contextData.costum.dashboard.tpl ) ) dTpl = \"/tpl/\"+contextData.costum.dashboard.tpl;if ( notNull( contextData.costum.dashboard.type ) ) dType = \"/type/\"+contextData.costum.dashboard.type;}",
            "required": true,
            "schema": {
              "type": "string"
            }
          }
        ],
        "responses": {
          "200": {
            "description": ""
          }
        }
      }
    },
    "/api/person/get/id/{id}/format/md": {
      "get": {
        "tags": [
          "co2"
        ],
        "summary": "load data from api of user by id",
        "description": "in /assets/js/default/profilSocial.js L392",
        "parameters": [
          {
            "$ref": "#/components/parameters/id"
          }
        ],
        "responses": {
          "200": {
            "description": ""
          }
        }
      }
    },
    "/co2/pay{params}": {
      "get": {
        "tags": [
          "co2"
        ],
        "summary": "",
        "description": "in /assets/js/default/shoppingCart.js L375",
        "parameters": [
          {
            "in": "path",
            "name": "params",
            "description": "params = \"?amount=\"+shopping.checkoutObj.total+\"&cur=EUR&card=\"+typeCB;",
            "required": true,
            "schema": {
              "type": "string"
            }
          }
        ],
        "responses": {
          "200": {
            "description": ""
          }
        }
      }
    },
    "/co2/done": {
      "get": {
        "tags": [
          "co2"
        ],
        "summary": "",
        "description": "in /assets/js/default/shoppingCart.js L380",
        "parameters": [
          {
            "in": "query",
            "name": "amount",
            "description": "shopping.checkoutObj.total",
            "required": true,
            "schema": {
              "type": "string"
            }
          },
          {
            "in": "query",
            "name": "cur",
            "description": "",
            "required": true,
            "schema": {
              "type": "string",
              "enum": [
                "EUR"
              ]
            }
          },
          {
            "in": "query",
            "name": "card",
            "description": "",
            "required": true,
            "schema": {
              "type": "string",
              "enum": [
                "CB_VISA_MASTERCARD"
              ]
            }
          }
        ],
        "responses": {
          "200": {
            "description": ""
          }
        }
      }
    },
    "/co2/rooms/index/type/citoyens/id/{userId}/view/data/fields/votes": {
      "get": {
        "tags": [
          "co2"
        ],
        "summary": "",
        "description": "in /assets/js/dynForm/entry.js L43",
        "parameters": [
          {
            "in": "path",
            "name": "userId",
            "description": "id of user",
            "required": true,
            "schema": {
              "type": "string"
            }
          }
        ],
        "responses": {
          "200": {
            "description": ""
          }
        }
      }
    },
    "/co2/comment/index/type/news/id/{contextId}": {
      "get": {
        "tags": [
          "co2"
        ],
        "summary": "",
        "description": "in /views/admin/moderateAll.php L335",
        "parameters": [
          {
            "in": "path",
            "name": "contextId",
            "description": " var contextId = $(this).data(\"contextid\");",
            "required": true,
            "schema": {
              "type": "string"
            }
          }
        ],
        "responses": {
          "200": {
            "description": ""
          }
        }
      }
    },
    "/co2/news/detail/id/{idNews}": {
      "get": {
        "tags": [
          "co2"
        ],
        "summary": "",
        "description": "in /views/admin/moderateOne.php L42",
        "parameters": [
          {
            "in": "path",
            "name": "idNews",
            "description": "",
            "required": true,
            "schema": {
              "type": "string"
            }
          }
        ],
        "responses": {
          "200": {
            "description": ""
          }
        }
      }
    },
    "/co2/city/detail/insee/{insee}/postalCode/{postalCode}": {
      "get": {
        "tags": [
          "co2"
        ],
        "summary": "",
        "description": "in /views/app/city.php L27",
        "parameters": [
          {
            "$ref": "#/components/parameters/insee"
          },
          {
            "$ref": "#/components/parameters/postalCode"
          }
        ],
        "responses": {
          "200": {
            "description": ""
          }
        }
      }
    },
    "/co2/rooms/index/type/{type}/id/{id}": {
      "get": {
        "tags": [
          "co2"
        ],
        "summary": "",
        "description": "in /views/app/rooms.php L29",
        "parameters": [
          {
            "$ref": "#/components/parameters/type"
          },
          {
            "$ref": "#/components/parameters/id"
          }
        ],
        "responses": {
          "200": {
            "description": ""
          }
        }
      }
    },
    "/co2/pod/slideragenda/id/{insee}/type/cities": {
      "get": {
        "tags": [
          "co2"
        ],
        "summary": "",
        "description": "in /views/city/detail.php L425",
        "parameters": [
          {
            "$ref": "#/components/parameters/insee"
          }
        ],
        "responses": {
          "200": {
            "description": ""
          }
        }
      }
    },
    "/co2/survey/index/type/cities/id/{insee}": {
      "get": {
        "tags": [
          "co2"
        ],
        "summary": "",
        "description": "in /views/city/detail.php L429",
        "parameters": [
          {
            "$ref": "#/components/parameters/insee"
          },
          {
            "in": "query",
            "name": "tpl",
            "description": "tpl=indexPod",
            "required": true,
            "schema": {
              "type": "string"
            }
          }
        ],
        "responses": {
          "200": {
            "description": ""
          }
        }
      }
    },
    "/co2/gantt/index/type/{type}/id/{id}/year/{year}/isAdmin/{edit}": {
      "get": {
        "tags": [
          "co2"
        ],
        "summary": "",
        "description": "in /views/gantt/index.php L145",
        "parameters": [
          {
            "$ref": "#/components/parameters/type"
          },
          {
            "$ref": "#/components/parameters/id"
          },
          {
            "in": "path",
            "name": "year",
            "description": "year=$(this).html();",
            "required": true,
            "schema": {
              "type": "string"
            }
          },
          {
            "in": "path",
            "name": "edit",
            "description": "var edit = \"<?php echo $edit; ?>\";",
            "required": true,
            "schema": {
              "type": "string"
            }
          }
        ],
        "responses": {
          "200": {
            "description": ""
          }
        }
      }
    },
    "/co2/gantt/index/type/{type}/id/{id}/isAdmin/{edit}": {
      "get": {
        "tags": [
          "co2"
        ],
        "summary": "",
        "description": "in /views/gantt/index.php L153",
        "parameters": [
          {
            "$ref": "#/components/parameters/type"
          },
          {
            "$ref": "#/components/parameters/id"
          },
          {
            "in": "path",
            "name": "year",
            "description": "year=$(this).html();",
            "required": true,
            "schema": {
              "type": "string"
            }
          },
          {
            "in": "path",
            "name": "edit",
            "description": "var edit = \"<?php echo $edit; ?>\";",
            "required": true,
            "schema": {
              "type": "string"
            }
          }
        ],
        "responses": {
          "200": {
            "description": ""
          }
        }
      }
    },
    "/co2{url}": {
      "get": {
        "tags": [
          "co2"
        ],
        "summary": "",
        "description": "in /views/network/simplyDirectory.php L963",
        "parameters": [
          {
            "in": "path",
            "name": "url",
            "description": "if(urlHash.indexOf(\"page\") >= 0){if(urlHash.indexOf(\"#@\") != -1)url= \"/app/\"+urlHash.replace( \"#@\",\"\" ).replace( /\\./g,\"/\" );elseurl= \"/app/\"+urlHash.replace( \"#\",\"\" ).replace( /\\./g,\"/\" );",
            "required": true,
            "schema": {
              "type": "string"
            }
          },
          {
            "in": "query",
            "name": "src",
            "description": "networkParams ?\";",
            "required": true,
            "schema": {
              "type": "string"
            }
          }
        ],
        "responses": {
          "200": {
            "description": ""
          }
        }
      }
    },
    "/co2/event/eventsv/id/{id}/type/{ifType}": {
      "get": {
        "tags": [
          "co2"
        ],
        "summary": "",
        "description": "in /views/pod/sliderAgenda.php L104",
        "parameters": [
          {
            "$ref": "#/components/parameters/id"
          },
          {
            "in": "path",
            "name": "ifType",
            "description": "if(\"undefined\" != typeof organization){ifType = <?php echo Organization::COLLECTION ?>\";}else{ifType = <?php echo Person::COLLECTION ?>\";}",
            "required": true,
            "schema": {
              "type": "string",
              "enum": [
                "organizations",
                "citoyens"
              ]
            }
          }
        ],
        "responses": {
          "200": {
            "description": ""
          }
        }
      }
    },
    "/co2/comment/index/type/poi/id/{poiAlone['_id']['$id']}": {
      "get": {
        "tags": [
          "co2"
        ],
        "summary": "",
        "description": "in /views/poi/preview.php L157 and /views/poi/standalone.php L125",
        "parameters": [
          {
            "in": "path",
            "name": "poiAlone['_id']['$id']",
            "description": "var poiAlone=<?php echo json_encode($element); ?>;",
            "required": true,
            "schema": {
              "type": "string"
            }
          }
        ],
        "responses": {
          "200": {
            "description": ""
          }
        }
      }
    },
    "/co2/event/eventsv/id/{id}/type/{type}": {
      "get": {
        "tags": [
          "co2"
        ],
        "summary": "",
        "description": "in /views/poi/preview.php L157 and /views/poi/standalone.php L125",
        "parameters": [
          {
            "$ref": "#/components/parameters/type"
          },
          {
            "$ref": "#/components/parameters/id"
          },
          {
            "in": "path",
            "name": "poiAlone['_id']['$id']",
            "description": "var poiAlone=<?php echo json_encode($element); ?>;",
            "required": true,
            "schema": {
              "type": "string"
            }
          }
        ],
        "responses": {
          "200": {
            "description": ""
          }
        }
      }
    },
    "/survey/co/delete/id/{idCand}": {
      "get": {
        "tags": [
          "costum",
          "survey"
        ],
        "summary": "",
        "description": "in (module costum => assets/js/(ctenat,deal,dealAH)/admin.js L201 and views/custom/ctenat/element/home.php L384 and /views/custom/deal/answer.php L274 and views/custom/kiltirvrac/offres.php L207) in (module survey => assets/js/answer.js L4 and assets/js/answerForm.js L3 and views/tpls/answers/allAnswers.php L126 and views/tpls/form/answerList.php L156)",
        "parameters": [
          {
            "in": "path",
            "name": "idCand",
            "description": "id of candidature ?(a vérifier)",
            "required": true,
            "schema": {
              "type": "string"
            }
          }
        ],
        "responses": {
          "200": {
            "description": ""
          }
        }
      }
    },
    "/{moduleId}/element/getdatadetail/type/{type}/id/{id}/dataName/{pageProfil.params.dir}{sub}{sort}": {
      "get": {
        "tags": [
          "costum"
        ],
        "summary": "",
        "description": "in assets/js/hva/pageProfil.js L43 and assets/js/laRaffinerie3/pageProfil.js L18",
        "parameters": [
          {
            "$ref": "#/components/parameters/moduleId"
          },
          {
            "$ref": "#/components/parameters/type"
          },
          {
            "$ref": "#/components/parameters/id"
          },
          {
            "in": "path",
            "name": "pageProfil.params.dir",
            "description": "pageProfil.params.dir=(!notEmpty(pageProfil.params.dir)) ? links.connectType[contextData.type] : pageProfil.params.dir;",
            "required": true,
            "schema": {
              "type": "string"
            }
          },
          {
            "in": "path",
            "name": "sub",
            "description": "var sub=(!notEmpty(pageProfil.params.sub)) ? \"\" : \"/sub/\"+pageProfil.params.sub;",
            "required": true,
            "schema": {
              "type": "string"
            }
          },
          {
            "in": "path",
            "name": "sort",
            "description": "var sort = ( ( pageProfil.params.dir == \"events\" ) ? \"/sort/1\" : \"\" );",
            "required": true,
            "schema": {
              "type": "string"
            }
          },
          {
            "in": "query",
            "name": "tpl",
            "description": "",
            "schema": {
              "type": "string",
              "enum": [
                "json"
              ]
            }
          }
        ],
        "responses": {
          "200": {
            "description": ""
          }
        }
      }
    },
    "/{moduleId}/element/getdatadetail/type/{type}/id/{id}/dataName/{pageProfil.params.dir}/limit/{limit}": {
      "get": {
        "tags": [
          "costum"
        ],
        "summary": "",
        "description": "in views/custom/OpenAtlas/home.php L333 L294",
        "parameters": [
          {
            "$ref": "#/components/parameters/moduleId"
          },
          {
            "$ref": "#/components/parameters/type"
          },
          {
            "$ref": "#/components/parameters/id"
          },
          {
            "in": "path",
            "name": "pageProfil.params.dir",
            "description": "pageProfil.params.dir=(!notEmpty(pageProfil.params.dir)) ? links.connectType[contextData.type] : pageProfil.params.dir;",
            "required": true,
            "schema": {
              "type": "string"
            }
          },
          {
            "$ref": "#/components/parameters/limit"
          },
          {
            "$ref": "#/components/parameters/tpl"
          }
        ],
        "responses": {
          "200": {
            "description": ""
          }
        }
      }
    },
    "/{moduleId}/default/doc/md/API": {
      "get": {
        "tags": [
          "costum",
          "dda",
          "eco",
          "survey"
        ],
        "summary": "",
        "description": "in costum/views/api/index.php L35 and dda/views/api/index.php L35 and dda/views/default/index.php L36 and eco/views/api/index.php L35 and survey/views/api/index.php L35",
        "parameters": [
          {
            "$ref": "#/components/parameters/moduleId"
          }
        ],
        "responses": {
          "200": {
            "description": ""
          }
        }
      }
    },
    "/{moduleId}/element/getdatadetail/type/{type}/id/{id}/dataName/members": {
      "get": {
        "tags": [
          "costum",
          "survey"
        ],
        "summary": "",
        "description": "in (module costum => /views/custom/ariane/evaluation.php L353 and /views/custom/co/formWizard.php L389 and /views/custom/mayenneDemain/liste.php L99 and /views/custom/notragora/element.php L937 and /views/custom/notragora/production.php L737 and /views/custom/pte/collectif.php L54 and /views/custom/tpls/views/index.php L397) (module survey => views/tpls/answerw/index.php L394 and views/tpls/views/index.php L203)",
        "parameters": [
          {
            "$ref": "#/components/parameters/moduleId"
          },
          {
            "$ref": "#/components/parameters/type"
          },
          {
            "$ref": "#/components/parameters/id"
          },
          {
            "$ref": "#/components/parameters/tpl"
          }
        ],
        "responses": {
          "200": {
            "description": ""
          }
        }
      }
    },
    "/{moduleId}/element/getdatadetail/type/{type}/id/{id}/dataName/organizations": {
      "get": {
        "tags": [
          "costum"
        ],
        "summary": "",
        "description": "in  /views/custom/notragora/element.php L965",
        "parameters": [
          {
            "$ref": "#/components/parameters/moduleId"
          },
          {
            "$ref": "#/components/parameters/type"
          },
          {
            "$ref": "#/components/parameters/id"
          },
          {
            "$ref": "#/components/parameters/tpl"
          }
        ],
        "responses": {
          "200": {
            "description": ""
          }
        }
      }
    },
    "/{moduleId}/element/getdatadetail/type/{type}/id/{id}/dataName/poi": {
      "get": {
        "tags": [
          "costum"
        ],
        "summary": "",
        "description": "in  /views/custom/notragora/element.php L995",
        "parameters": [
          {
            "$ref": "#/components/parameters/moduleId"
          },
          {
            "$ref": "#/components/parameters/type"
          },
          {
            "$ref": "#/components/parameters/id"
          },
          {
            "$ref": "#/components/parameters/tpl"
          }
        ],
        "responses": {
          "200": {
            "description": ""
          }
        }
      }
    },
    "/{moduleId}/comment/index/type/poi/id/{poiAloneId}": {
      "get": {
        "tags": [
          "costum"
        ],
        "summary": "",
        "description": "in /views/custom/collathlon/affiche.php L125 and /views/custom/siteDuPactePourLaTransition/preview.php L141",
        "parameters": [
          {
            "$ref": "#/components/parameters/moduleId"
          },
          {
            "in": "path",
            "name": "poiAloneId",
            "description": "",
            "required": true,
            "schema": {
              "type": "string"
            }
          }
        ],
        "responses": {
          "200": {
            "description": ""
          }
        }
      }
    },
    "/api/poi/get/tags/{contextData.name}": {
      "get": {
        "tags": [
          "costum"
        ],
        "summary": "",
        "description": "in /views/custom/notragora/badges.php L391",
        "parameters": [
          {
            "in": "path",
            "name": "contextData.name",
            "description": "",
            "required": true,
            "schema": {
              "type": "string"
            }
          }
        ],
        "responses": {
          "200": {
            "description": ""
          }
        }
      }
    },
    "/{moduleId}/element/getdatadetail/type/{type}/id/{id}/dataName/members/isInviting/true": {
      "get": {
        "tags": [
          "costum"
        ],
        "summary": "",
        "description": "in /views/custom/notragora/element.php L551",
        "parameters": [
          {
            "$ref": "#/components/parameters/moduleId"
          },
          {
            "$ref": "#/components/parameters/type"
          },
          {
            "$ref": "#/components/parameters/id"
          },
          {
            "$ref": "#/components/parameters/tpl"
          }
        ],
        "responses": {
          "200": {
            "description": ""
          }
        }
      }
    },
    "/costum/sommom/dashboard/tpl/costum.views.custom.sommom.dashboard/answer/5e5e2470681c3376298b456b/activegraph/{territoire}": {
      "get": {
        "tags": [
          "costum"
        ],
        "summary": "",
        "description": "in /views/custom/sommon/dashboard.php L642",
        "parameters": [
          {
            "$ref": "#/components/parameters/moduleId"
          },
          {
            "in": "path",
            "name": "territoire",
            "description": "",
            "required": true,
            "schema": {
              "type": "string"
            }
          }
        ],
        "responses": {
          "200": {
            "description": ""
          }
        }
      }
    },
    "/costum/sommom/dashboard/form/5e5eaf8b44d27915d9a43d84": {
      "get": {
        "tags": [
          "costum"
        ],
        "summary": "",
        "description": "in /views/custom/sommon/home.php L5",
        "responses": {
          "200": {
            "description": ""
          }
        }
      }
    },
    "/survey/co/forms/id/testTerritoire1/session/1/aid/5cf0dd69539f22d3686c588f": {
      "get": {
        "tags": [
          "costum"
        ],
        "summary": "",
        "description": "in /views/custom/test/ficheAction.php L5 and /views/custom/test/ficheOrientation.php L112",
        "responses": {
          "200": {
            "description": ""
          }
        }
      }
    },
    "/survey/co/index/id/cte1/session/2/answer/5cb41a29539f226c4a7c997f": {
      "get": {
        "tags": [
          "costum"
        ],
        "summary": "",
        "description": "in /views/custom/test/stepper.php L113",
        "responses": {
          "200": {
            "description": ""
          }
        }
      }
    },
    "/{moduleId}/default/doc": {
      "get": {
        "tags": [
          "costum",
          "cotools",
          "eco",
          "learn",
          "map",
          "onepage",
          "places",
          "ressources",
          "survey"
        ],
        "summary": "",
        "description": "costum/views/default/index.php l154 and cotools/views/default/index.php l42 and (learn, eco, ressources)/views/default/index.php l37  and map/views/default/index.php l152 and onepage/views/default/index.php l31 and places/views/default/index.php l32  and survey/views/default/index.php l36",
        "parameters": [
          {
            "$ref": "#/components/parameters/moduleId"
          }
        ],
        "responses": {
          "200": {
            "description": ""
          }
        }
      }
    },
    "/{moduleId}/comment/index/type/proposals/id/{idParentProposal}": {
      "get": {
        "tags": [
          "dda"
        ],
        "summary": "",
        "description": "assets/js/uiCoop.js L645 and assets/js/uiModeration.js L38",
        "parameters": [
          {
            "$ref": "#/components/parameters/moduleId"
          },
          {
            "in": "path",
            "name": "idParentProposal",
            "description": "",
            "required": true,
            "schema": {
              "type": "string"
            }
          }
        ],
        "responses": {
          "200": {
            "description": ""
          }
        }
      }
    },
    "/{moduleId}/comment/index/type/actions/id/{idAction}": {
      "get": {
        "tags": [
          "dda"
        ],
        "summary": "",
        "description": "assets/js/uiCoop.js L821",
        "parameters": [
          {
            "$ref": "#/components/parameters/moduleId"
          },
          {
            "in": "path",
            "name": "idAction",
            "description": "",
            "required": true,
            "schema": {
              "type": "string"
            }
          }
        ],
        "responses": {
          "200": {
            "description": ""
          }
        }
      }
    },
    "/{moduleId}/comment/index/type/resolutions/id/{idParentResolution}": {
      "get": {
        "tags": [
          "dda"
        ],
        "summary": "",
        "description": "assets/js/uiCoop.js L905",
        "parameters": [
          {
            "$ref": "#/components/parameters/moduleId"
          },
          {
            "in": "path",
            "name": "idParentResolution",
            "description": "",
            "required": true,
            "schema": {
              "type": "string"
            }
          }
        ],
        "responses": {
          "200": {
            "description": ""
          }
        }
      }
    },
    "/{moduleId}/comment/index/type/classifieds/id/{element['_id']['$id']}": {
      "get": {
        "tags": [
          "eco"
        ],
        "summary": "",
        "description": "in views/co/preview.php L255 and views/co/standalone.php L217",
        "parameters": [
          {
            "$ref": "#/components/parameters/moduleId"
          },
          {
            "in": "path",
            "name": "element['_id']['$id']",
            "description": "",
            "required": true,
            "schema": {
              "type": "string"
            }
          }
        ],
        "responses": {
          "200": {
            "description": ""
          }
        }
      }
    },
    "/graph/default/doc": {
      "get": {
        "tags": [
          "graph"
        ],
        "summary": "load doc md and convert to html with callback",
        "description": "views/default/index.php L31",
        "responses": {
          "200": {
            "description": ""
          }
        }
      }
    },
    "/{url}": {
      "get": {
        "tags": [
          "news"
        ],
        "summary": "generique",
        "description": "desciption: va roder dans le fichier L366",
        "parameters": [
          {
            "in": "path",
            "name": "url",
            "description": "comme description",
            "required": true,
            "schema": {
              "type": "string"
            }
          }
        ],
        "responses": {
          "200": {
            "description": ""
          }
        }
      }
    },
    "/{moduleId}/comment/index/type/ressources/id/\"+element['_id']['$id']": {
      "get": {
        "tags": [
          "ressources"
        ],
        "summary": "",
        "description": "in views/co/preview.php L249 and views/co/standalone.php L218",
        "parameters": [
          {
            "$ref": "#/components/parameters/moduleId"
          },
          {
            "in": "path",
            "name": "element['_id']['$id']",
            "description": "",
            "required": true,
            "schema": {
              "type": "string"
            }
          }
        ],
        "responses": {
          "200": {
            "description": ""
          }
        }
      }
    },
    "/{moduleId}/element/getdatadetail/type/{type}/id/{id}/dataName/{dataName}": {
      "get": {
        "tags": [
          "onepage"
        ],
        "summary": "",
        "description": "in /views/custom/tags.php L926 and /views/custom/zad/index.php L457",
        "parameters": [
          {
            "$ref": "#/components/parameters/moduleId"
          },
          {
            "$ref": "#/components/parameters/type"
          },
          {
            "$ref": "#/components/parameters/id"
          },
          {
            "in": "path",
            "name": "dataName",
            "description": "",
            "required": true,
            "schema": {
              "type": "string"
            }
          },
          {
            "$ref": "#/components/parameters/tpl"
          }
        ],
        "responses": {
          "200": {
            "description": ""
          }
        }
      }
    },
    "/costum/sommom/dashboard/form/{formId}": {
      "get": {
        "tags": [
          "survey"
        ],
        "summary": "load form",
        "description": "in assets/js/form.js L109",
        "parameters": [
          {
            "$ref": "#/components/parameters/formId"
          }
        ],
        "responses": {
          "200": {
            "description": ""
          }
        }
      }
    },
    "/survey/form/delete/id/{formId}": {
      "get": {
        "tags": [
          "survey"
        ],
        "summary": "delete form",
        "description": "in assets/js/form.js L365 and views/tpls/forms/oforms.php L110 and views/tpls/forms/wizard.php L224",
        "parameters": [
          {
            "$ref": "#/components/parameters/formId"
          }
        ],
        "responses": {
          "200": {
            "description": ""
          }
        }
      }
    },
    "/survey/co/answer/id/{answerId}/step/dossier.cte3.planFinancement": {
      "get": {
        "tags": [
          "survey"
        ],
        "summary": "load form",
        "description": "in views/co/answerList.php L506",
        "parameters": [
          {
            "$ref": "#/components/parameters/answerId"
          }
        ],
        "responses": {
          "200": {
            "description": ""
          }
        }
      }
    },
    "/{moduleId}/comment/index/type/answers/id/{answerId}": {
      "get": {
        "tags": [
          "survey"
        ],
        "summary": "load form",
        "description": "in views/co/answerList.php L535 and views/custom/cte.php L402 and views/custom/cte/answerList.php L434 and views/custom/ctenat/home.php L384",
        "parameters": [
          {
            "$ref": "#/components/parameters/moduleId"
          },
          {
            "$ref": "#/components/parameters/answerId"
          }
        ],
        "responses": {
          "200": {
            "description": ""
          }
        }
      }
    },
    "/{moduleId}/comment/index/type/answers/id/{answerId}/path/risks.{riskId}": {
      "get": {
        "tags": [
          "survey"
        ],
        "summary": "",
        "description": "in views/co/dossier.php L563 and in views/co/dossierEdit.php L433",
        "parameters": [
          {
            "$ref": "#/components/parameters/moduleId"
          },
          {
            "$ref": "#/components/parameters/answerId"
          },
          {
            "$ref": "#/components/parameters/riskId"
          }
        ],
        "responses": {
          "200": {
            "description": ""
          }
        }
      }
    },
    "/{moduleId}/comment/index/type/answers/id/{answerId}/path/{location.hash}:answers.SigneLe9Avril2019.answers.murir.calendar.{pos}": {
      "get": {
        "tags": [
          "survey"
        ],
        "summary": "",
        "description": "in views/custom/ctenat/dossierEdit.php L975",
        "parameters": [
          {
            "$ref": "#/components/parameters/moduleId"
          },
          {
            "$ref": "#/components/parameters/answerId"
          },
          {
            "$ref": "#/components/parameters/location.hash"
          },
          {
            "in": "path",
            "name": "pos",
            "description": "?",
            "required": true,
            "schema": {
              "type": "string"
            }
          }
        ],
        "responses": {
          "200": {
            "description": ""
          }
        }
      }
    },
    "/survey/answer/get/form/{formId}": {
      "get": {
        "tags": [
          "survey"
        ],
        "summary": "",
        "description": "in views/tpls/forms/oforms.php L87",
        "parameters": [
          {
            "$ref": "#/components/parameters/formId"
          }
        ],
        "responses": {
          "200": {
            "description": ""
          }
        }
      }
    },
    "/survey/co/delete/id/{answerId}": {
      "get": {
        "tags": [
          "survey"
        ],
        "summary": "",
        "description": "in views/tpls/forms/costume/deal/answers.php L125 and views/tpls/forms/cplx/answers.php L228",
        "parameters": [
          {
            "$ref": "#/components/parameters/answerId"
          }
        ],
        "responses": {
          "200": {
            "description": ""
          }
        }
      }
    }
  },
  "components": {
    "parameters": {
      "answerId": {
        "name": "answerId",
        "in": "path",
        "description": "id of answer",
        "required": true,
        "schema": {
          "type": "string"
        }
      },
      "riskId": {
        "name": "riskId",
        "in": "path",
        "description": "id of risk",
        "required": true,
        "schema": {
          "type": "string"
        }
      },
      "location.hash": {
        "name": "location.hash",
        "in": "path",
        "description": "hash of page",
        "required": true,
        "schema": {
          "type": "string"
        }
      },
      "moduleId": {
        "name": "moduleId",
        "in": "path",
        "description": "name of module",
        "required": true,
        "schema": {
          "type": "string"
        }
      },
      "formId": {
        "name": "formId",
        "in": "path",
        "description": "id of form",
        "required": true,
        "schema": {
          "type": "string"
        }
      },
      "idel": {
        "name": "element[_id][$id]",
        "in": "path",
        "description": "element id",
        "required": true,
        "schema": {
          "type": "string"
        }
      },
      "id": {
        "name": "id",
        "in": "path",
        "description": "current element id",
        "required": true,
        "schema": {
          "type": "string"
        }
      },
      "idDef": {
        "name": "id(voirDescription)",
        "in": "path",
        "required": true,
        "schema": {
          "type": "string"
        }
      },
      "limit": {
        "name": "limit",
        "in": "path",
        "required": true,
        "schema": {
          "type": "integer"
        }
      },
      "tpl": {
        "name": "tpl",
        "in": "query",
        "required": false,
        "description": "",
        "schema": {
          "type": "string",
          "enum": [
            "json"
          ]
        }
      },
      "type": {
        "name": "type",
        "in": "path",
        "description": "current element type",
        "required": true,
        "schema": {
          "type": "string"
        }
      },
      "slug": {
        "name": "slug",
        "in": "path",
        "description": "current element slug",
        "required": true,
        "schema": {
          "type": "string"
        }
      },
      "insee": {
        "name": "insee",
        "in": "path",
        "description": "code insee",
        "required": true,
        "schema": {
          "type": "string"
        }
      },
      "postalCode": {
        "name": "postalCode",
        "in": "path",
        "description": "code postal",
        "required": true,
        "schema": {
          "type": "string"
        }
      }
    }
  }
}